{
    "jquery": "node_modules/jquery/dist/jquery.min.js",
    "backbone": "node_modules/backbone/backbone-min.js",
    "quo": "node_modules/quojs/dist/quo.standalone.js",
    "underscore": "node_modules/underscore/underscore-min.js",
    "tmpl": "node_modules/blueimp-tmpl/js/tmpl.min.js",
    "matreshka": "node_modules/matreshka/matreshka.min.js",
    "matreshka-router": "node_modules/matreshka-router/matreshka-router.min.js",
    "lodash": "node_modules/lodash/lodash.js",
    "text": "app/js/library_0/text.js",
    "jbone": "app/js/library_0/jbone.min.js",
    "loaders": "app/js/library_0/loaders.js"
}